<?xml version="1.0" encoding="utf-8"?>
<!-- Generator: Adobe Illustrator 15.1.0, SVG Export Plug-In . SVG Version: 6.00 Build 0)  -->
<!DOCTYPE svg PUBLIC "-//W3C//DTD SVG 1.1//EN" "http://www.w3.org/Graphics/SVG/1.1/DTD/svg11.dtd">
<svg version="1.1" id="Layer_1" xmlns="http://www.w3.org/2000/svg" xmlns:xlink="http://www.w3.org/1999/xlink" x="0px" y="0px"
	 width="46.255px" height="46.254px" viewBox="0 0 46.255 46.254" enable-background="new 0 0 46.255 46.254" xml:space="preserve">
<polygon fill="#FFFFFF" points="37.984,6.581 29.55,14.456 12.343,14.456 12.343,31.976 29.55,31.976 37.984,39.851 "/>
<rect x="21.745" y="-6.149" transform="matrix(0.7069 0.7073 -0.7073 0.7069 23.1353 -9.5798)" fill="#FFFFFF" width="2.764" height="58.552"/>
<rect x="21.745" y="-6.149" transform="matrix(-0.7071 0.7071 -0.7071 -0.7071 55.8349 23.1283)" fill="#FFFFFF" width="2.765" height="58.553"/>
</svg>
