<?xml version="1.0" encoding="utf-8"?>
<!-- Generator: Adobe Illustrator 15.1.0, SVG Export Plug-In . SVG Version: 6.00 Build 0)  -->
<!DOCTYPE svg PUBLIC "-//W3C//DTD SVG 1.1//EN" "http://www.w3.org/Graphics/SVG/1.1/DTD/svg11.dtd">
<svg version="1.1" id="Layer_1" xmlns="http://www.w3.org/2000/svg" xmlns:xlink="http://www.w3.org/1999/xlink" x="0px" y="0px"
	 width="46.255px" height="46.254px" viewBox="0 0 46.255 46.254" enable-background="new 0 0 46.255 46.254" xml:space="preserve">
<path fill="#FFFFFF" d="M23.128,0C10.354,0,0,10.354,0,23.127s10.354,23.127,23.128,23.127c12.773,0,23.126-10.354,23.126-23.127
	S35.901,0,23.128,0z M17.555,33.271l-1.314-2.113l11.591-8.119l-11.591-8.121l1.314-2.064l15.066,10.186L17.555,33.271z"/>
</svg>
