<?xml version="1.0" encoding="utf-8"?>
<!-- Generator: Adobe Illustrator 15.1.0, SVG Export Plug-In . SVG Version: 6.00 Build 0)  -->
<!DOCTYPE svg PUBLIC "-//W3C//DTD SVG 1.1//EN" "http://www.w3.org/Graphics/SVG/1.1/DTD/svg11.dtd">
<svg version="1.1" id="Layer_1" xmlns="http://www.w3.org/2000/svg" xmlns:xlink="http://www.w3.org/1999/xlink" x="0px" y="0px"
	 width="46.255px" height="46.254px" viewBox="0 0 46.255 46.254" enable-background="new 0 0 46.255 46.254" xml:space="preserve">
<path fill="#FFFFFF" d="M23.127,0C10.354,0,0,10.354,0,23.127s10.354,23.127,23.127,23.127S46.254,35.9,46.254,23.127
	S35.901,0,23.127,0z M32.622,23.084L17.555,33.27c0-9.266,8.188-10.186,8.188-10.186s-8.188-1.652-8.188-10.186v-0.047
	L32.622,23.084z"/>
</svg>
